Input File: formatted_input_curves.txt
Date: Tue Sep  9 14:38:04 2014
Log OD Threshold: 0.3
Range: 1 (max +/- n)
Group	n	ttl_n	ttl(hr)	ttl_SD	maxod_n	maxod	maxod_SD		ttl_reps			maxod_reps
Bacteroides_dorei_DSM_17855_MM_no_trt	3	3	3.84	0.118	3	1.142	0.008		3.756111111	3.756111111	4.006388889	1.152	1.14366666666667	1.13133333333333
Bacteroides_dorei_DSM_17855_MM_trt_1um	3	3	4.09	0.118	3	1.102	0.006		4.256666667	4.006388889	4.006388889	1.09333333333333	1.10733333333333	1.10666666666667
Bacteroides_dorei_DSM_17855_MM_trt_5um	3	3	8.761	0	3	1.04	0.007		8.761388889	8.761388889	8.761388889	1.04933333333333	1.03366666666667	1.036
Bacteroides_dorei_DSM_17855_MM_trt_10um	3	3	16.185	0.624	3	0.844	0.07		16.01861111	15.51805556	17.01944444	0.913333333333333	0.748	0.871666666666667
Bacteroides_fragilis_257B_MM_no_trt	3	3	4.257	0.204	3	1.048	0.025		4.006388889	4.506666667	4.256666667	1.032	1.08366666666667	1.02866666666667
Bacteroides_fragilis_257B_MM_trt_1um	3	3	4.173	0.118	3	0.983	0.033		4.256666667	4.256666667	4.006388889	0.949666666666667	0.972	1.02866666666667
Bacteroides_fragilis_257B_MM_trt_5um	3	1	29.782	0	3	0.323	0.277		NA	NA	29.78194444	0.130333333333333	0.122666666666667	0.715
Bacteroides_fragilis_257B_MM_trt_10um	3	0	n/a	n/a	3	0.162	0.072		NA	NA	NA	0.102666666666667	0.119	0.263333333333333
Bacteroides_intestinalis_DSM_17393_MM_no_trt	3	3	6.175	0.118	3	0.852	0.014		6.008333333	6.258611111	6.258611111	0.839	0.846	0.871666666666667
Bacteroides_intestinalis_DSM_17393_MM_trt_1um	3	3	6.175	0.118	3	0.788	0.015		6.258611111	6.258611111	6.008333333	0.767666666666667	0.801	0.795333333333333
Bacteroides_intestinalis_DSM_17393_MM_trt_5um	3	2	70.63	7.064	3	0.313	0.066		63.56555556	NA	77.69416667	0.386666666666667	0.226666666666667	0.325666666666667
Bacteroides_intestinalis_DSM_17393_MM_trt_10um	3	0	n/a	n/a	3	0.127	0.012		NA	NA	NA	0.110333333333333	0.139666666666667	0.130333333333333
Bacteroides_thetaiotaomicron_VPI-5482_MM_no_trt	3	3	4.507	0	3	1.021	0.016		4.506666667	4.506666667	4.506666667	1.029	1.03533333333333	0.997666666666667
Bacteroides_thetaiotaomicron_VPI-5482_MM_trt_1um	3	3	4.757	0	3	0.964	0.009		4.757222222	4.757222222	4.757222222	0.961666666666667	0.975333333333333	0.953666666666667
Bacteroides_thetaiotaomicron_VPI-5482_MM_trt_5um	3	3	19.271	6.555	3	0.887	0.022		15.01722222	14.26638889	28.53083333	0.891	0.912666666666667	0.858
Bacteroides_thetaiotaomicron_VPI-5482_MM_trt_10um	3	3	35.121	1.639	3	0.813	0.008		37.03944444	33.03527778	35.2875	0.808333333333333	0.824	0.806
Bacteroides_vulgatus_ATCC_8482_MM_no_trt	3	3	5.007	0	3	1.075	0.014		5.007222222	5.007222222	5.007222222	1.059	1.09333333333333	1.074
Bacteroides_vulgatus_ATCC_8482_MM_trt_1um	3	3	5.007	0	3	1.071	0.011		5.007222222	5.007222222	5.007222222	1.075	1.057	1.082
Bacteroides_vulgatus_ATCC_8482_MM_trt_5um	3	0	n/a	n/a	3	0.113	0.003		NA	NA	NA	0.109	0.112666666666667	0.116
Bacteroides_vulgatus_ATCC_8482_MM_trt_10um	3	0	n/a	n/a	3	0.113	0.002		NA	NA	NA	0.110666666666667	0.114	0.115333333333333
Bacteroides_vulgatus_257B_MM_no_trt	3	3	3.923	0.118	3	0.726	0.012		3.756111111	4.006388889	4.006388889	0.721	0.743333333333333	0.714666666666667
Bacteroides_vulgatus_257B_MM_trt_1um	3	3	4.34	0.118	3	0.731	0.02		4.256666667	4.506666667	4.256666667	0.702333333333333	0.745666666666667	0.744
Bacteroides_vulgatus_257B_MM_trt_5um	3	3	15.268	0.354	3	0.74	0.007		14.76694444	15.51805556	15.51805556	0.750333333333333	0.738333333333333	0.732333333333333
Bacteroides_vulgatus_257B_MM_trt_10um	3	3	28.948	2.587	3	0.698	0.058		25.52777778	31.78388889	29.53166667	0.771333333333333	0.629666666666667	0.694
Bacteroides_WH2_MM_no_trt	3	3	5.591	0.118	3	0.955	0.036		5.507777778	5.507777778	5.758055556	0.98	0.904	0.981
Bacteroides_WH2_MM_trt_1um	3	3	5.341	0.118	3	0.916	0.002		5.507777778	5.257777778	5.257777778	0.915333333333333	0.914333333333333	0.918333333333333
Bacteroides_WH2_MM_trt_5um	3	3	13.266	1.022	3	0.837	0.046		13.26583333	12.01444444	14.51694444	0.855	0.882333333333333	0.775
Bacteroides_WH2_MM_trt_10um	3	3	30.533	0.613	3	0.621	0.014		31.28333333	30.53305556	29.78194444	0.611666666666667	0.611333333333333	0.641333333333333
control_MM_no_trt	3	0	n/a	n/a	3	0.093	0.001		NA	NA	NA	0.0916666666666667	0.092	0.094
control_MM_trt_1um	3	0	n/a	n/a	3	0.099	0.001		NA	NA	NA	0.0996666666666667	0.0993333333333333	0.0966666666666667
control_MM_trt_5um	3	0	n/a	n/a	3	0.099	0.001		NA	NA	NA	0.0973333333333333	0.100333333333333	0.0986666666666667
control_MM_trt_10um	3	0	n/a	n/a	3	0.105	0.001		NA	NA	NA	0.106333333333333	0.104333333333333	0.104333333333333
